2020-03-23T10:04:59.155Z - [info] Macro was stopped manually (Runtime 838.53s)
2020-03-23T10:05:08.152Z - [status] Playing macro DemoAutofill-1
2020-03-23T10:05:08.184Z - [info] Executing:  | store | fast | !replayspeed | 
2020-03-23T10:05:08.214Z - [status] Macro paused
2020-03-23T10:05:09.727Z - [status] Macro resumed
2020-03-23T10:05:09.743Z - [info] Executing:  | store | 15 | !TIMEOUT_WAIT | 
2020-03-23T10:05:09.777Z - [status] Macro paused
2020-03-23T10:05:10.021Z - [status] Macro resumed
2020-03-23T10:05:10.048Z - [info] Executing:  | store | 60 | !TIMEOUT_PAGELOAD | 
2020-03-23T10:05:10.105Z - [status] Macro paused
2020-03-23T10:05:10.879Z - [status] Macro resumed
2020-03-23T10:05:10.897Z - [info] Executing:  | open | https://colab.research.google.com/drive/1cBzeiCBd8EkNWJnytuhayuKauapMdsJl#scrollTo=n7PaaV5RiF13 |  | 
2020-03-23T10:05:13.134Z - [status] Macro paused
2020-03-23T10:05:28.537Z - [status] Macro resumed
2020-03-23T10:05:28.553Z - [info] Executing:  | click | //span[contains(text(),"UI.Vision IDE")] |  | 
2020-03-23T10:05:40.173Z - [info] Macro was stopped manually (Runtime 14.08s)
2020-03-23T10:05:40.298Z - [status] Macro paused
2020-03-23T10:20:32.930Z - [info] Macro was stopped manually (Runtime 918.60s)
2020-03-23T10:20:39.670Z - [status] Playing macro DemoAutofill
2020-03-23T10:20:39.700Z - [info] Executing:  | store | fast | !replayspeed | 
2020-03-23T10:20:39.719Z - [info] Executing:  | store | 15 | !TIMEOUT_WAIT | 
2020-03-23T10:20:39.737Z - [info] Executing:  | store | 60 | !TIMEOUT_PAGELOAD | 
2020-03-23T10:20:39.756Z - [info] Executing:  | open | https://docs.google.com/forms/d/e/1FAIpQLScP-K8zi-9ar0MCq93D3VIFhegSNPveBfdLqiMfTYR9Q1iSKQ/viewform |  | 
2020-03-23T10:20:42.791Z - [info] Macro was stopped manually (Runtime 3.10s)
2020-03-23T10:20:44.151Z - [status] Playing macro DemoAutofill
2020-03-23T10:20:44.182Z - [info] Executing:  | store | fast | !replayspeed | 
2020-03-23T10:20:44.210Z - [status] Macro paused
2020-03-23T10:20:46.766Z - [status] Macro resumed
2020-03-23T10:20:46.782Z - [info] Executing:  | store | 15 | !TIMEOUT_WAIT | 
2020-03-23T10:20:46.816Z - [status] Macro paused
2020-03-23T10:20:47.024Z - [status] Macro resumed
2020-03-23T10:20:47.038Z - [info] Executing:  | store | 60 | !TIMEOUT_PAGELOAD | 
2020-03-23T10:20:47.069Z - [status] Macro paused
2020-03-23T10:20:47.766Z - [status] Macro resumed
2020-03-23T10:20:47.781Z - [info] Executing:  | open | https://docs.google.com/forms/d/e/1FAIpQLScP-K8zi-9ar0MCq93D3VIFhegSNPveBfdLqiMfTYR9Q1iSKQ/viewform |  | 
2020-03-23T10:20:49.866Z - [status] Macro paused
2020-03-23T11:07:36.259Z - [info] Macro was stopped manually (Runtime 2810.74s)
2020-03-23T11:07:37.998Z - [status] Playing macro DemoAutofill
2020-03-23T11:07:38.026Z - [info] Executing:  | store | fast | !replayspeed | 
2020-03-23T11:07:38.060Z - [status] Macro paused
2020-03-23T11:07:39.851Z - [status] Macro resumed
2020-03-23T11:07:39.869Z - [info] Executing:  | store | 15 | !TIMEOUT_WAIT | 
2020-03-23T11:07:39.931Z - [status] Macro paused
2020-03-23T11:07:40.827Z - [status] Macro resumed
2020-03-23T11:07:40.841Z - [info] Executing:  | store | 60 | !TIMEOUT_PAGELOAD | 
2020-03-23T11:07:40.885Z - [status] Macro paused
2020-03-23T11:07:42.204Z - [status] Macro resumed
2020-03-23T11:07:42.219Z - [info] Executing:  | open | https://docs.google.com/forms/d/e/1FAIpQLScP-K8zi-9ar0MCq93D3VIFhegSNPveBfdLqiMfTYR9Q1iSKQ/viewform |  | 
2020-03-23T11:07:44.323Z - [status] Macro paused
2020-03-23T11:07:47.387Z - [status] Macro resumed
2020-03-23T11:07:47.401Z - [info] Executing:  | click | //span[contains(text(),"UI.Vision IDE")] |  | 
2020-03-23T11:07:47.488Z - [status] Macro paused
2020-03-23T11:08:21.282Z - [status] Macro resumed
2020-03-23T11:08:21.297Z - [info] Executing:  | click | //*[text()[contains(.,'Web Testing')]] |  | 
2020-03-23T11:08:21.375Z - [status] Macro paused
2020-03-23T11:10:41.615Z - [status] Macro resumed
2020-03-23T11:10:41.636Z - [info] Executing:  | click | //span[contains(text(),"Form Autofilling")] |  | 
2020-03-23T11:10:41.703Z - [status] Macro paused
2020-03-23T11:11:35.303Z - [status] Macro resumed
2020-03-23T11:11:35.321Z - [info] Executing:  | click | //*[text()[contains(.,"General Web Automation")]] |  | 
2020-03-23T11:11:35.394Z - [status] Macro paused
2020-03-23T11:11:37.350Z - [status] Macro resumed
2020-03-23T11:11:37.368Z - [info] Executing:  | comment | This would only work with English as browser language: //content[contains(text(),"Choose")] |  | 
2020-03-23T11:11:37.404Z - [status] Macro paused
2020-03-23T11:12:11.378Z - [status] Macro resumed
2020-03-23T11:12:11.394Z - [info] Executing:  | click | xpath=//*[@id="mG61Hd"]/div/div/div[2]/div[3]/div/div[2]/div[1]/div[1]/div[1]/span |  | 
2020-03-23T11:12:11.463Z - [status] Macro paused
2020-03-23T11:12:17.020Z - [status] Macro resumed
2020-03-23T11:12:17.035Z - [info] Executing:  | click | xpath=//*[@id="mG61Hd"]/div/div/div[2]/div[3]/div/div[2]/div[2]/div[3]/span |  | 
2020-03-23T11:12:17.097Z - [status] Macro paused
2020-03-23T11:12:18.602Z - [status] Macro resumed
2020-03-23T11:12:18.618Z - [info] Executing:  | comment | Pause for user to see filled out page |  | 
2020-03-23T11:12:18.651Z - [status] Macro paused
2020-03-23T11:12:24.762Z - [status] Macro resumed
2020-03-23T11:12:24.780Z - [info] Executing:  | pause | 500 |  | 
2020-03-23T11:12:25.307Z - [status] Macro paused
2020-03-23T11:12:27.467Z - [status] Macro resumed
2020-03-23T11:12:27.486Z - [info] Executing:  | captureScreenshot | AutoFill1stPage${!LOOP} |  | 
2020-03-23T11:12:27.846Z - [info] a new screenshot captured
2020-03-23T11:12:27.875Z - [status] Macro paused
2020-03-23T11:12:35.506Z - [status] Macro resumed
2020-03-23T11:12:35.523Z - [info] Executing:  | clickAndWait | css=span.quantumWizButtonPaperbuttonLabel.exportLabel |  | 
2020-03-23T11:12:37.642Z - [status] Macro paused
2020-03-23T11:12:40.722Z - [status] Macro resumed
2020-03-23T11:12:40.742Z - [info] Executing:  | type | name=entry.1572386418 | This is a single line test... | 
2020-03-23T11:12:40.890Z - [status] Macro paused
2020-03-23T11:12:49.072Z - [info] Macro was stopped manually (Runtime 14.60s)
2020-03-23T11:14:49.044Z - [status] Playing macro DemoAutofill-1
2020-03-23T11:14:49.074Z - [info] Executing:  | store | fast | !replayspeed | 
2020-03-23T11:14:49.106Z - [status] Macro paused
2020-03-23T11:14:51.709Z - [status] Macro resumed
2020-03-23T11:14:51.725Z - [info] Executing:  | store | 15 | !TIMEOUT_WAIT | 
2020-03-23T11:14:51.774Z - [status] Macro paused
2020-03-23T11:14:52.295Z - [status] Macro resumed
2020-03-23T11:14:52.311Z - [info] Executing:  | store | 60 | !TIMEOUT_PAGELOAD | 
2020-03-23T11:14:52.343Z - [status] Macro paused
2020-03-23T11:14:52.912Z - [status] Macro resumed
2020-03-23T11:14:52.928Z - [info] Executing:  | open | https://colab.research.google.com/drive/1cBzeiCBd8EkNWJnytuhayuKauapMdsJl#scrollTo=n7PaaV5RiF13 |  | 
2020-03-23T11:14:59.944Z - [status] Macro paused
2020-03-23T11:15:04.113Z - [status] Macro resumed
2020-03-23T11:15:04.138Z - [info] Executing:  | click | //span[contains(text(),"UI.Vision IDE")] |  | 
2020-03-23T11:15:12.626Z - [info] Macro was stopped manually (Runtime 15.71s)
2020-03-23T11:15:12.719Z - [status] Macro paused
2020-03-23T11:15:25.635Z - [info] Macro was stopped manually (Runtime 37.33s)
2020-03-23T11:16:14.183Z - [status] Playing macro DemoAutofill-1
2020-03-23T11:16:14.229Z - [info] Executing:  | store | fast | !replayspeed | 
2020-03-23T11:16:14.267Z - [status] Macro paused
2020-03-23T11:16:17.183Z - [status] Macro resumed
2020-03-23T11:16:17.205Z - [info] Executing:  | store | 15 | !TIMEOUT_WAIT | 
2020-03-23T11:16:17.243Z - [status] Macro paused
2020-03-23T11:16:17.951Z - [status] Macro resumed
2020-03-23T11:16:17.966Z - [info] Executing:  | store | 60 | !TIMEOUT_PAGELOAD | 
2020-03-23T11:16:18.026Z - [status] Macro paused
2020-03-23T11:16:18.742Z - [status] Macro resumed
2020-03-23T11:16:18.761Z - [info] Executing:  | open | https://colab.research.google.com/drive/1cBzeiCBd8EkNWJnytuhayuKauapMdsJl#scrollTo=n7PaaV5RiF13 |  | 
2020-03-23T11:16:20.989Z - [status] Macro paused
2020-03-23T11:16:24.040Z - [status] Macro resumed
2020-03-23T11:16:24.058Z - [info] Executing:  | comment | This would only work with English as browser language: //content[contains(text(),"Choose")] |  | 
2020-03-23T11:16:24.092Z - [status] Macro paused
2020-03-23T11:16:33.647Z - [status] Macro resumed
2020-03-23T11:16:33.667Z - [info] Executing:  | click | xpath=//*[@id="mG61Hd"]/div/div/div[2]/div[3]/div/div[2]/div[1]/div[1]/div[1]/span |  | 
2020-03-23T11:16:40.584Z - [info] Macro was stopped manually (Runtime 9.45s)
2020-03-23T11:16:41.008Z - [status] Macro paused
2020-03-23T11:16:49.043Z - [info] Macro was stopped manually (Runtime 25.28s)
2020-03-23T11:17:20.484Z - [status] Playing macro DemoAutofill-1
2020-03-23T11:17:20.532Z - [info] Executing:  | store | fast | !replayspeed | 
2020-03-23T11:17:20.640Z - [status] Macro paused
2020-03-23T11:17:22.928Z - [status] Macro resumed
2020-03-23T11:17:22.946Z - [info] Executing:  | store | 15 | !TIMEOUT_WAIT | 
2020-03-23T11:17:22.988Z - [status] Macro paused
2020-03-23T11:17:23.106Z - [status] Macro resumed
2020-03-23T11:17:23.122Z - [info] Executing:  | store | 60 | !TIMEOUT_PAGELOAD | 
2020-03-23T11:17:23.161Z - [status] Macro paused
2020-03-23T11:17:23.296Z - [status] Macro resumed
2020-03-23T11:17:23.312Z - [info] Executing:  | open | https://colab.research.google.com/drive/1cBzeiCBd8EkNWJnytuhayuKauapMdsJl#scrollTo=n7PaaV5RiF13 |  | 
2020-03-23T11:17:29.425Z - [info] Macro was stopped manually (Runtime 6.38s)
2020-03-23T11:18:22.017Z - [status] Playing macro DemoAutofill-1
2020-03-23T11:18:22.094Z - [info] Executing:  | store | fast | !replayspeed | 
2020-03-23T11:18:22.176Z - [status] Macro paused
2020-03-23T11:18:23.933Z - [status] Macro resumed
2020-03-23T11:18:23.954Z - [info] Executing:  | store | 15 | !TIMEOUT_WAIT | 
2020-03-23T11:18:23.993Z - [status] Macro paused
2020-03-23T11:18:24.331Z - [status] Macro resumed
2020-03-23T11:18:24.346Z - [info] Executing:  | store | 60 | !TIMEOUT_PAGELOAD | 
2020-03-23T11:18:24.383Z - [status] Macro paused
2020-03-23T11:18:25.098Z - [status] Macro resumed
2020-03-23T11:18:25.115Z - [info] Executing:  | open | https://colab.research.google.com/drive/1cBzeiCBd8EkNWJnytuhayuKauapMdsJl#scrollTo=n7PaaV5RiF13 |  | 
2020-03-23T11:18:36.346Z - [info] Macro was stopped manually (Runtime 11.48s)
2020-03-23T11:20:20.999Z - [status] Playing macro DemoAutofill-1
2020-03-23T11:20:21.033Z - [info] Executing:  | open | https://colab.research.google.com/drive/1cBzeiCBd8EkNWJnytuhayuKauapMdsJl#scrollTo=n7PaaV5RiF13 |  | 
2020-03-23T11:20:28.999Z - [info] Macro was stopped manually (Runtime 7.98s)
2020-03-23T11:23:12.834Z - [status] Playing macro DemoAutofill-1
2020-03-23T11:23:12.869Z - [info] Executing:  | store | fast | !replayspeed | 
2020-03-23T11:23:12.933Z - [status] Macro paused
2020-03-23T11:23:14.482Z - [status] Macro resumed
2020-03-23T11:23:14.502Z - [info] Executing:  | store | 15 | !TIMEOUT_WAIT | 
2020-03-23T11:23:14.539Z - [status] Macro paused
2020-03-23T11:23:14.698Z - [status] Macro resumed
2020-03-23T11:23:14.714Z - [info] Executing:  | store | 60 | !TIMEOUT_PAGELOAD | 
2020-03-23T11:23:14.754Z - [status] Macro paused
2020-03-23T11:23:14.954Z - [status] Macro resumed
2020-03-23T11:23:14.973Z - [info] Executing:  | open | https://colab.research.google.com/drive/1cBzeiCBd8EkNWJnytuhayuKauapMdsJl#scrollTo=n7PaaV5RiF13 |  | 
2020-03-23T11:23:29.626Z - [info] Macro was stopped manually (Runtime 14.87s)
2020-03-23T11:25:59.778Z - [status] Playing macro DemoAutofill-1
2020-03-23T11:25:59.829Z - [info] Executing:  | store | fast | !replayspeed | 
2020-03-23T11:25:59.868Z - [status] Macro paused
2020-03-23T11:26:00.846Z - [status] Macro resumed
2020-03-23T11:26:00.872Z - [info] Executing:  | store | 15 | !TIMEOUT_WAIT | 
2020-03-23T11:26:00.935Z - [status] Macro paused
2020-03-23T11:26:01.640Z - [status] Macro resumed
2020-03-23T11:26:01.658Z - [info] Executing:  | store | 60 | !TIMEOUT_PAGELOAD | 
2020-03-23T11:26:01.696Z - [status] Macro paused
2020-03-23T11:26:02.365Z - [status] Macro resumed
2020-03-23T11:26:02.380Z - [info] Executing:  | open | https://colab.research.google.com/drive/1cBzeiCBd8EkNWJnytuhayuKauapMdsJl#scrollTo=n7PaaV5RiF13 |  | 
2020-03-23T11:26:06.803Z - [status] Macro paused
2020-03-23T11:26:11.538Z - [status] Macro resumed
2020-03-23T11:26:11.557Z - [info] Executing:  | click | xpath=//*[@id="top-toolbar"]/colab-connect-button |  | 
2020-03-23T11:26:11.730Z - [status] Macro paused
2020-03-23T11:26:24.659Z - [status] Macro resumed
2020-03-23T11:26:24.680Z - [info] Executing:  | comment | This would only work with English as browser language: //content[contains(text(),"Choose")] |  | 
2020-03-23T11:26:24.717Z - [status] Macro paused
2020-03-23T11:26:31.502Z - [status] Macro resumed
2020-03-23T11:26:31.523Z - [info] Executing:  | click | xpath=//*[@id="mG61Hd"]/div/div/div[2]/div[3]/div/div[2]/div[1]/div[1]/div[1]/span |  | 
2020-03-23T11:26:37.570Z - [info] Macro was stopped manually (Runtime 10.97s)
2020-03-23T11:26:38.026Z - [status] Macro paused
2020-03-23T11:27:08.130Z - [info] Macro was stopped manually (Runtime 48.06s)
2020-03-23T11:28:54.760Z - [status] Playing macro DemoAutofill-1
2020-03-23T11:28:54.825Z - [info] Executing:  | store | fast | !replayspeed | 
2020-03-23T11:28:54.894Z - [status] Macro paused
2020-03-23T11:28:56.689Z - [status] Macro resumed
2020-03-23T11:28:56.709Z - [info] Executing:  | store | 15 | !TIMEOUT_WAIT | 
2020-03-23T11:28:56.759Z - [status] Macro paused
2020-03-23T11:28:58.289Z - [status] Macro resumed
2020-03-23T11:28:58.307Z - [info] Executing:  | store | 60 | !TIMEOUT_PAGELOAD | 
2020-03-23T11:28:58.347Z - [status] Macro paused
2020-03-23T11:28:58.905Z - [status] Macro resumed
2020-03-23T11:28:58.926Z - [info] Executing:  | open | https://colab.research.google.com/drive/1cBzeiCBd8EkNWJnytuhayuKauapMdsJl#scrollTo=n7PaaV5RiF13 |  | 
2020-03-23T11:29:03.782Z - [info] Macro was stopped manually (Runtime 5.10s)
2020-03-23T11:29:05.536Z - [status] Playing macro DemoAutofill-1
2020-03-23T11:29:05.568Z - [info] Executing:  | store | fast | !replayspeed | 
2020-03-23T11:29:05.617Z - [status] Macro paused
2020-03-23T11:29:07.650Z - [status] Macro resumed
2020-03-23T11:29:07.676Z - [info] Executing:  | store | 15 | !TIMEOUT_WAIT | 
2020-03-23T11:29:07.728Z - [status] Macro paused
2020-03-23T11:29:08.494Z - [status] Macro resumed
2020-03-23T11:29:08.511Z - [info] Executing:  | store | 60 | !TIMEOUT_PAGELOAD | 
2020-03-23T11:29:08.557Z - [status] Macro paused
2020-03-23T11:29:09.377Z - [status] Macro resumed
2020-03-23T11:29:09.402Z - [info] Executing:  | open | https://colab.research.google.com/drive/1cBzeiCBd8EkNWJnytuhayuKauapMdsJl#scrollTo=n7PaaV5RiF13 |  | 
2020-03-23T11:29:17.873Z - [info] Macro was stopped manually (Runtime 8.71s)
2020-03-23T11:29:19.685Z - [status] Playing macro DemoAutofill-1
2020-03-23T11:29:19.747Z - [info] Executing:  | store | fast | !replayspeed | 
2020-03-23T11:29:19.782Z - [status] Macro paused
2020-03-23T11:29:22.554Z - [status] Macro resumed
2020-03-23T11:29:22.573Z - [info] Executing:  | store | 15 | !TIMEOUT_WAIT | 
2020-03-23T11:29:22.611Z - [status] Macro paused
2020-03-23T11:29:23.689Z - [status] Macro resumed
2020-03-23T11:29:23.705Z - [info] Executing:  | store | 60 | !TIMEOUT_PAGELOAD | 
2020-03-23T11:29:23.759Z - [status] Macro paused
2020-03-23T11:29:24.564Z - [status] Macro resumed
2020-03-23T11:29:24.582Z - [info] Executing:  | open | https://colab.research.google.com/drive/1cBzeiCBd8EkNWJnytuhayuKauapMdsJl#scrollTo=n7PaaV5RiF13 |  | 
2020-03-23T11:29:38.346Z - [info] Macro was stopped manually (Runtime 13.97s)
2020-03-23T11:29:59.252Z - UI.Vision RPA closing
